^G:\PROJECTS\SCHOOL\EGP-410-ARTIFICIAL-INTELLIGENCE\PLAYGROUND\BARRETT_STRADER\FINAL\PATHFINDING\COMMON\GAMEMESSAGE.CPP
/c /Zi /nologo /W3 /WX- /diagnostics:classic /O2 /Oi /Oy- /GL /D _CRT_SECURE_NO_WARNINGS /D _MBCS /Gm- /EHsc /MD /GS /Gy /fp:precise /Zc:wchar_t /Zc:forScope /Zc:inline /Fo"RELEASE\\" /Fd"RELEASE\VC141.PDB" /Gd /TP /analyze- G:\PROJECTS\SCHOOL\EGP-410-ARTIFICIAL-INTELLIGENCE\PLAYGROUND\BARRETT_STRADER\FINAL\PATHFINDING\COMMON\GAMEMESSAGE.CPP
^G:\PROJECTS\SCHOOL\EGP-410-ARTIFICIAL-INTELLIGENCE\PLAYGROUND\BARRETT_STRADER\FINAL\PATHFINDING\COMMON\GRAPHICSBUFFER.CPP
/c /Zi /nologo /W3 /WX- /diagnostics:classic /O2 /Oi /Oy- /GL /D _CRT_SECURE_NO_WARNINGS /D _MBCS /Gm- /EHsc /MD /GS /Gy /fp:precise /Zc:wchar_t /Zc:forScope /Zc:inline /Fo"RELEASE\\" /Fd"RELEASE\VC141.PDB" /Gd /TP /analyze- G:\PROJECTS\SCHOOL\EGP-410-ARTIFICIAL-INTELLIGENCE\PLAYGROUND\BARRETT_STRADER\FINAL\PATHFINDING\COMMON\GRAPHICSBUFFER.CPP
^G:\PROJECTS\SCHOOL\EGP-410-ARTIFICIAL-INTELLIGENCE\PLAYGROUND\BARRETT_STRADER\FINAL\PATHFINDING\COMMON\GRID.CPP
/c /Zi /nologo /W3 /WX- /diagnostics:classic /O2 /Oi /Oy- /GL /D _CRT_SECURE_NO_WARNINGS /D _MBCS /Gm- /EHsc /MD /GS /Gy /fp:precise /Zc:wchar_t /Zc:forScope /Zc:inline /Fo"RELEASE\\" /Fd"RELEASE\VC141.PDB" /Gd /TP /analyze- G:\PROJECTS\SCHOOL\EGP-410-ARTIFICIAL-INTELLIGENCE\PLAYGROUND\BARRETT_STRADER\FINAL\PATHFINDING\COMMON\GRID.CPP
^G:\PROJECTS\SCHOOL\EGP-410-ARTIFICIAL-INTELLIGENCE\PLAYGROUND\BARRETT_STRADER\FINAL\PATHFINDING\COMMON\SPRITE.CPP
/c /Zi /nologo /W3 /WX- /diagnostics:classic /O2 /Oi /Oy- /GL /D _CRT_SECURE_NO_WARNINGS /D _MBCS /Gm- /EHsc /MD /GS /Gy /fp:precise /Zc:wchar_t /Zc:forScope /Zc:inline /Fo"RELEASE\\" /Fd"RELEASE\VC141.PDB" /Gd /TP /analyze- G:\PROJECTS\SCHOOL\EGP-410-ARTIFICIAL-INTELLIGENCE\PLAYGROUND\BARRETT_STRADER\FINAL\PATHFINDING\COMMON\SPRITE.CPP
^G:\PROJECTS\SCHOOL\EGP-410-ARTIFICIAL-INTELLIGENCE\PLAYGROUND\BARRETT_STRADER\FINAL\PATHFINDING\COMMON\SPRITEMANAGER.CPP
/c /Zi /nologo /W3 /WX- /diagnostics:classic /O2 /Oi /Oy- /GL /D _CRT_SECURE_NO_WARNINGS /D _MBCS /Gm- /EHsc /MD /GS /Gy /fp:precise /Zc:wchar_t /Zc:forScope /Zc:inline /Fo"RELEASE\\" /Fd"RELEASE\VC141.PDB" /Gd /TP /analyze- G:\PROJECTS\SCHOOL\EGP-410-ARTIFICIAL-INTELLIGENCE\PLAYGROUND\BARRETT_STRADER\FINAL\PATHFINDING\COMMON\SPRITEMANAGER.CPP
^G:\PROJECTS\SCHOOL\EGP-410-ARTIFICIAL-INTELLIGENCE\PLAYGROUND\BARRETT_STRADER\FINAL\PATHFINDING\GAME\CONNECTION.CPP
/c /Zi /nologo /W3 /WX- /diagnostics:classic /O2 /Oi /Oy- /GL /D _CRT_SECURE_NO_WARNINGS /D _MBCS /Gm- /EHsc /MD /GS /Gy /fp:precise /Zc:wchar_t /Zc:forScope /Zc:inline /Fo"RELEASE\\" /Fd"RELEASE\VC141.PDB" /Gd /TP /analyze- G:\PROJECTS\SCHOOL\EGP-410-ARTIFICIAL-INTELLIGENCE\PLAYGROUND\BARRETT_STRADER\FINAL\PATHFINDING\GAME\CONNECTION.CPP
^G:\PROJECTS\SCHOOL\EGP-410-ARTIFICIAL-INTELLIGENCE\PLAYGROUND\BARRETT_STRADER\FINAL\PATHFINDING\GAME\DYNAMICSEEKSTEERING.CPP
/c /Zi /nologo /W3 /WX- /diagnostics:classic /O2 /Oi /Oy- /GL /D _CRT_SECURE_NO_WARNINGS /D _MBCS /Gm- /EHsc /MD /GS /Gy /fp:precise /Zc:wchar_t /Zc:forScope /Zc:inline /Fo"RELEASE\\" /Fd"RELEASE\VC141.PDB" /Gd /TP /analyze- G:\PROJECTS\SCHOOL\EGP-410-ARTIFICIAL-INTELLIGENCE\PLAYGROUND\BARRETT_STRADER\FINAL\PATHFINDING\GAME\DYNAMICSEEKSTEERING.CPP
^G:\PROJECTS\SCHOOL\EGP-410-ARTIFICIAL-INTELLIGENCE\PLAYGROUND\BARRETT_STRADER\FINAL\PATHFINDING\GAME\GRAPH.CPP
/c /Zi /nologo /W3 /WX- /diagnostics:classic /O2 /Oi /Oy- /GL /D _CRT_SECURE_NO_WARNINGS /D _MBCS /Gm- /EHsc /MD /GS /Gy /fp:precise /Zc:wchar_t /Zc:forScope /Zc:inline /Fo"RELEASE\\" /Fd"RELEASE\VC141.PDB" /Gd /TP /analyze- G:\PROJECTS\SCHOOL\EGP-410-ARTIFICIAL-INTELLIGENCE\PLAYGROUND\BARRETT_STRADER\FINAL\PATHFINDING\GAME\GRAPH.CPP
^G:\PROJECTS\SCHOOL\EGP-410-ARTIFICIAL-INTELLIGENCE\PLAYGROUND\BARRETT_STRADER\FINAL\PATHFINDING\GAME\NODE.CPP
/c /Zi /nologo /W3 /WX- /diagnostics:classic /O2 /Oi /Oy- /GL /D _CRT_SECURE_NO_WARNINGS /D _MBCS /Gm- /EHsc /MD /GS /Gy /fp:precise /Zc:wchar_t /Zc:forScope /Zc:inline /Fo"RELEASE\\" /Fd"RELEASE\VC141.PDB" /Gd /TP /analyze- G:\PROJECTS\SCHOOL\EGP-410-ARTIFICIAL-INTELLIGENCE\PLAYGROUND\BARRETT_STRADER\FINAL\PATHFINDING\GAME\NODE.CPP
^G:\PROJECTS\SCHOOL\EGP-410-ARTIFICIAL-INTELLIGENCE\PLAYGROUND\BARRETT_STRADER\FINAL\PATHFINDING\GAME\NODEF_COSTHEAP.CPP
/c /Zi /nologo /W3 /WX- /diagnostics:classic /O2 /Oi /Oy- /GL /D _CRT_SECURE_NO_WARNINGS /D _MBCS /Gm- /EHsc /MD /GS /Gy /fp:precise /Zc:wchar_t /Zc:forScope /Zc:inline /Fo"RELEASE\\" /Fd"RELEASE\VC141.PDB" /Gd /TP /analyze- G:\PROJECTS\SCHOOL\EGP-410-ARTIFICIAL-INTELLIGENCE\PLAYGROUND\BARRETT_STRADER\FINAL\PATHFINDING\GAME\NODEF_COSTHEAP.CPP
^G:\PROJECTS\SCHOOL\EGP-410-ARTIFICIAL-INTELLIGENCE\PLAYGROUND\BARRETT_STRADER\FINAL\PATHFINDING\GAME\PATH.CPP
/c /Zi /nologo /W3 /WX- /diagnostics:classic /O2 /Oi /Oy- /GL /D _CRT_SECURE_NO_WARNINGS /D _MBCS /Gm- /EHsc /MD /GS /Gy /fp:precise /Zc:wchar_t /Zc:forScope /Zc:inline /Fo"RELEASE\\" /Fd"RELEASE\VC141.PDB" /Gd /TP /analyze- G:\PROJECTS\SCHOOL\EGP-410-ARTIFICIAL-INTELLIGENCE\PLAYGROUND\BARRETT_STRADER\FINAL\PATHFINDING\GAME\PATH.CPP
^G:\PROJECTS\SCHOOL\EGP-410-ARTIFICIAL-INTELLIGENCE\PLAYGROUND\BARRETT_STRADER\FINAL\PATHFINDING\GAME\PATHFINDER.CPP
/c /Zi /nologo /W3 /WX- /diagnostics:classic /O2 /Oi /Oy- /GL /D _CRT_SECURE_NO_WARNINGS /D _MBCS /Gm- /EHsc /MD /GS /Gy /fp:precise /Zc:wchar_t /Zc:forScope /Zc:inline /Fo"RELEASE\\" /Fd"RELEASE\VC141.PDB" /Gd /TP /analyze- G:\PROJECTS\SCHOOL\EGP-410-ARTIFICIAL-INTELLIGENCE\PLAYGROUND\BARRETT_STRADER\FINAL\PATHFINDING\GAME\PATHFINDER.CPP
^G:\PROJECTS\SCHOOL\EGP-410-ARTIFICIAL-INTELLIGENCE\PLAYGROUND\BARRETT_STRADER\FINAL\PATHFINDING\GAME\PATHFINDINGDEBUGCONTENT.CPP
/c /Zi /nologo /W3 /WX- /diagnostics:classic /O2 /Oi /Oy- /GL /D _CRT_SECURE_NO_WARNINGS /D _MBCS /Gm- /EHsc /MD /GS /Gy /fp:precise /Zc:wchar_t /Zc:forScope /Zc:inline /Fo"RELEASE\\" /Fd"RELEASE\VC141.PDB" /Gd /TP /analyze- G:\PROJECTS\SCHOOL\EGP-410-ARTIFICIAL-INTELLIGENCE\PLAYGROUND\BARRETT_STRADER\FINAL\PATHFINDING\GAME\PATHFINDINGDEBUGCONTENT.CPP
^G:\PROJECTS\SCHOOL\EGP-410-ARTIFICIAL-INTELLIGENCE\PLAYGROUND\BARRETT_STRADER\FINAL\PATHFINDING\COMMON\CURSOR.CPP
/c /Zi /nologo /W3 /WX- /diagnostics:classic /O2 /Oi /Oy- /GL /D _CRT_SECURE_NO_WARNINGS /D _MBCS /Gm- /EHsc /MD /GS /Gy /fp:precise /Zc:wchar_t /Zc:forScope /Zc:inline /Fo"RELEASE\\" /Fd"RELEASE\VC141.PDB" /Gd /TP /analyze- G:\PROJECTS\SCHOOL\EGP-410-ARTIFICIAL-INTELLIGENCE\PLAYGROUND\BARRETT_STRADER\FINAL\PATHFINDING\COMMON\CURSOR.CPP
^G:\PROJECTS\SCHOOL\EGP-410-ARTIFICIAL-INTELLIGENCE\PLAYGROUND\BARRETT_STRADER\FINAL\PATHFINDING\COMMON\GAME.CPP
/c /Zi /nologo /W3 /WX- /diagnostics:classic /O2 /Oi /Oy- /GL /D _CRT_SECURE_NO_WARNINGS /D _MBCS /Gm- /EHsc /MD /GS /Gy /fp:precise /Zc:wchar_t /Zc:forScope /Zc:inline /Fo"RELEASE\\" /Fd"RELEASE\VC141.PDB" /Gd /TP /analyze- G:\PROJECTS\SCHOOL\EGP-410-ARTIFICIAL-INTELLIGENCE\PLAYGROUND\BARRETT_STRADER\FINAL\PATHFINDING\COMMON\GAME.CPP
^G:\PROJECTS\SCHOOL\EGP-410-ARTIFICIAL-INTELLIGENCE\PLAYGROUND\BARRETT_STRADER\FINAL\PATHFINDING\COMMON\GAMEITEM.CPP
/c /Zi /nologo /W3 /WX- /diagnostics:classic /O2 /Oi /Oy- /GL /D _CRT_SECURE_NO_WARNINGS /D _MBCS /Gm- /EHsc /MD /GS /Gy /fp:precise /Zc:wchar_t /Zc:forScope /Zc:inline /Fo"RELEASE\\" /Fd"RELEASE\VC141.PDB" /Gd /TP /analyze- G:\PROJECTS\SCHOOL\EGP-410-ARTIFICIAL-INTELLIGENCE\PLAYGROUND\BARRETT_STRADER\FINAL\PATHFINDING\COMMON\GAMEITEM.CPP
^G:\PROJECTS\SCHOOL\EGP-410-ARTIFICIAL-INTELLIGENCE\PLAYGROUND\BARRETT_STRADER\FINAL\PATHFINDING\COMMON\GAMEMESSAGEMANAGER.CPP
/c /Zi /nologo /W3 /WX- /diagnostics:classic /O2 /Oi /Oy- /GL /D _CRT_SECURE_NO_WARNINGS /D _MBCS /Gm- /EHsc /MD /GS /Gy /fp:precise /Zc:wchar_t /Zc:forScope /Zc:inline /Fo"RELEASE\\" /Fd"RELEASE\VC141.PDB" /Gd /TP /analyze- G:\PROJECTS\SCHOOL\EGP-410-ARTIFICIAL-INTELLIGENCE\PLAYGROUND\BARRETT_STRADER\FINAL\PATHFINDING\COMMON\GAMEMESSAGEMANAGER.CPP
^G:\PROJECTS\SCHOOL\EGP-410-ARTIFICIAL-INTELLIGENCE\PLAYGROUND\BARRETT_STRADER\FINAL\PATHFINDING\COMMON\GRAPHICSBUFFERMANAGER.CPP
/c /Zi /nologo /W3 /WX- /diagnostics:classic /O2 /Oi /Oy- /GL /D _CRT_SECURE_NO_WARNINGS /D _MBCS /Gm- /EHsc /MD /GS /Gy /fp:precise /Zc:wchar_t /Zc:forScope /Zc:inline /Fo"RELEASE\\" /Fd"RELEASE\VC141.PDB" /Gd /TP /analyze- G:\PROJECTS\SCHOOL\EGP-410-ARTIFICIAL-INTELLIGENCE\PLAYGROUND\BARRETT_STRADER\FINAL\PATHFINDING\COMMON\GRAPHICSBUFFERMANAGER.CPP
^G:\PROJECTS\SCHOOL\EGP-410-ARTIFICIAL-INTELLIGENCE\PLAYGROUND\BARRETT_STRADER\FINAL\PATHFINDING\COMMON\GRAPHICSSYSTEM.CPP
/c /Zi /nologo /W3 /WX- /diagnostics:classic /O2 /Oi /Oy- /GL /D _CRT_SECURE_NO_WARNINGS /D _MBCS /Gm- /EHsc /MD /GS /Gy /fp:precise /Zc:wchar_t /Zc:forScope /Zc:inline /Fo"RELEASE\\" /Fd"RELEASE\VC141.PDB" /Gd /TP /analyze- G:\PROJECTS\SCHOOL\EGP-410-ARTIFICIAL-INTELLIGENCE\PLAYGROUND\BARRETT_STRADER\FINAL\PATHFINDING\COMMON\GRAPHICSSYSTEM.CPP
^G:\PROJECTS\SCHOOL\EGP-410-ARTIFICIAL-INTELLIGENCE\PLAYGROUND\BARRETT_STRADER\FINAL\PATHFINDING\COMMON\GRIDVISUALIZER.CPP
/c /Zi /nologo /W3 /WX- /diagnostics:classic /O2 /Oi /Oy- /GL /D _CRT_SECURE_NO_WARNINGS /D _MBCS /Gm- /EHsc /MD /GS /Gy /fp:precise /Zc:wchar_t /Zc:forScope /Zc:inline /Fo"RELEASE\\" /Fd"RELEASE\VC141.PDB" /Gd /TP /analyze- G:\PROJECTS\SCHOOL\EGP-410-ARTIFICIAL-INTELLIGENCE\PLAYGROUND\BARRETT_STRADER\FINAL\PATHFINDING\COMMON\GRIDVISUALIZER.CPP
^G:\PROJECTS\SCHOOL\EGP-410-ARTIFICIAL-INTELLIGENCE\PLAYGROUND\BARRETT_STRADER\FINAL\PATHFINDING\COMMON\GRUESPAWN.CPP
/c /Zi /nologo /W3 /WX- /diagnostics:classic /O2 /Oi /Oy- /GL /D _CRT_SECURE_NO_WARNINGS /D _MBCS /Gm- /EHsc /MD /GS /Gy /fp:precise /Zc:wchar_t /Zc:forScope /Zc:inline /Fo"RELEASE\\" /Fd"RELEASE\VC141.PDB" /Gd /TP /analyze- G:\PROJECTS\SCHOOL\EGP-410-ARTIFICIAL-INTELLIGENCE\PLAYGROUND\BARRETT_STRADER\FINAL\PATHFINDING\COMMON\GRUESPAWN.CPP
^G:\PROJECTS\SCHOOL\EGP-410-ARTIFICIAL-INTELLIGENCE\PLAYGROUND\BARRETT_STRADER\FINAL\PATHFINDING\COMMON\INPUTINTERPRETOR.CPP
/c /Zi /nologo /W3 /WX- /diagnostics:classic /O2 /Oi /Oy- /GL /D _CRT_SECURE_NO_WARNINGS /D _MBCS /Gm- /EHsc /MD /GS /Gy /fp:precise /Zc:wchar_t /Zc:forScope /Zc:inline /Fo"RELEASE\\" /Fd"RELEASE\VC141.PDB" /Gd /TP /analyze- G:\PROJECTS\SCHOOL\EGP-410-ARTIFICIAL-INTELLIGENCE\PLAYGROUND\BARRETT_STRADER\FINAL\PATHFINDING\COMMON\INPUTINTERPRETOR.CPP
^G:\PROJECTS\SCHOOL\EGP-410-ARTIFICIAL-INTELLIGENCE\PLAYGROUND\BARRETT_STRADER\FINAL\PATHFINDING\COMMON\INPUTMANAGER.CPP
/c /Zi /nologo /W3 /WX- /diagnostics:classic /O2 /Oi /Oy- /GL /D _CRT_SECURE_NO_WARNINGS /D _MBCS /Gm- /EHsc /MD /GS /Gy /fp:precise /Zc:wchar_t /Zc:forScope /Zc:inline /Fo"RELEASE\\" /Fd"RELEASE\VC141.PDB" /Gd /TP /analyze- G:\PROJECTS\SCHOOL\EGP-410-ARTIFICIAL-INTELLIGENCE\PLAYGROUND\BARRETT_STRADER\FINAL\PATHFINDING\COMMON\INPUTMANAGER.CPP
^G:\PROJECTS\SCHOOL\EGP-410-ARTIFICIAL-INTELLIGENCE\PLAYGROUND\BARRETT_STRADER\FINAL\PATHFINDING\COMMON\LINESEGMENT.CPP
/c /Zi /nologo /W3 /WX- /diagnostics:classic /O2 /Oi /Oy- /GL /D _CRT_SECURE_NO_WARNINGS /D _MBCS /Gm- /EHsc /MD /GS /Gy /fp:precise /Zc:wchar_t /Zc:forScope /Zc:inline /Fo"RELEASE\\" /Fd"RELEASE\VC141.PDB" /Gd /TP /analyze- G:\PROJECTS\SCHOOL\EGP-410-ARTIFICIAL-INTELLIGENCE\PLAYGROUND\BARRETT_STRADER\FINAL\PATHFINDING\COMMON\LINESEGMENT.CPP
^G:\PROJECTS\SCHOOL\EGP-410-ARTIFICIAL-INTELLIGENCE\PLAYGROUND\BARRETT_STRADER\FINAL\PATHFINDING\COMMON\LINESEGMENTPATH.CPP
/c /Zi /nologo /W3 /WX- /diagnostics:classic /O2 /Oi /Oy- /GL /D _CRT_SECURE_NO_WARNINGS /D _MBCS /Gm- /EHsc /MD /GS /Gy /fp:precise /Zc:wchar_t /Zc:forScope /Zc:inline /Fo"RELEASE\\" /Fd"RELEASE\VC141.PDB" /Gd /TP /analyze- G:\PROJECTS\SCHOOL\EGP-410-ARTIFICIAL-INTELLIGENCE\PLAYGROUND\BARRETT_STRADER\FINAL\PATHFINDING\COMMON\LINESEGMENTPATH.CPP
^G:\PROJECTS\SCHOOL\EGP-410-ARTIFICIAL-INTELLIGENCE\PLAYGROUND\BARRETT_STRADER\FINAL\PATHFINDING\COMMON\MAP.CPP
/c /Zi /nologo /W3 /WX- /diagnostics:classic /O2 /Oi /Oy- /GL /D _CRT_SECURE_NO_WARNINGS /D _MBCS /Gm- /EHsc /MD /GS /Gy /fp:precise /Zc:wchar_t /Zc:forScope /Zc:inline /Fo"RELEASE\\" /Fd"RELEASE\VC141.PDB" /Gd /TP /analyze- G:\PROJECTS\SCHOOL\EGP-410-ARTIFICIAL-INTELLIGENCE\PLAYGROUND\BARRETT_STRADER\FINAL\PATHFINDING\COMMON\MAP.CPP
^G:\PROJECTS\SCHOOL\EGP-410-ARTIFICIAL-INTELLIGENCE\PLAYGROUND\BARRETT_STRADER\FINAL\PATHFINDING\COMMON\PELLET.CPP
/c /Zi /nologo /W3 /WX- /diagnostics:classic /O2 /Oi /Oy- /GL /D _CRT_SECURE_NO_WARNINGS /D _MBCS /Gm- /EHsc /MD /GS /Gy /fp:precise /Zc:wchar_t /Zc:forScope /Zc:inline /Fo"RELEASE\\" /Fd"RELEASE\VC141.PDB" /Gd /TP /analyze- G:\PROJECTS\SCHOOL\EGP-410-ARTIFICIAL-INTELLIGENCE\PLAYGROUND\BARRETT_STRADER\FINAL\PATHFINDING\COMMON\PELLET.CPP
^G:\PROJECTS\SCHOOL\EGP-410-ARTIFICIAL-INTELLIGENCE\PLAYGROUND\BARRETT_STRADER\FINAL\PATHFINDING\COMMON\PLAYERSPAWN.CPP
/c /Zi /nologo /W3 /WX- /diagnostics:classic /O2 /Oi /Oy- /GL /D _CRT_SECURE_NO_WARNINGS /D _MBCS /Gm- /EHsc /MD /GS /Gy /fp:precise /Zc:wchar_t /Zc:forScope /Zc:inline /Fo"RELEASE\\" /Fd"RELEASE\VC141.PDB" /Gd /TP /analyze- G:\PROJECTS\SCHOOL\EGP-410-ARTIFICIAL-INTELLIGENCE\PLAYGROUND\BARRETT_STRADER\FINAL\PATHFINDING\COMMON\PLAYERSPAWN.CPP
^G:\PROJECTS\SCHOOL\EGP-410-ARTIFICIAL-INTELLIGENCE\PLAYGROUND\BARRETT_STRADER\FINAL\PATHFINDING\COMMON\PORTAL.CPP
/c /Zi /nologo /W3 /WX- /diagnostics:classic /O2 /Oi /Oy- /GL /D _CRT_SECURE_NO_WARNINGS /D _MBCS /Gm- /EHsc /MD /GS /Gy /fp:precise /Zc:wchar_t /Zc:forScope /Zc:inline /Fo"RELEASE\\" /Fd"RELEASE\VC141.PDB" /Gd /TP /analyze- G:\PROJECTS\SCHOOL\EGP-410-ARTIFICIAL-INTELLIGENCE\PLAYGROUND\BARRETT_STRADER\FINAL\PATHFINDING\COMMON\PORTAL.CPP
^G:\PROJECTS\SCHOOL\EGP-410-ARTIFICIAL-INTELLIGENCE\PLAYGROUND\BARRETT_STRADER\FINAL\PATHFINDING\COMMON\POWERPELLET.CPP
/c /Zi /nologo /W3 /WX- /diagnostics:classic /O2 /Oi /Oy- /GL /D _CRT_SECURE_NO_WARNINGS /D _MBCS /Gm- /EHsc /MD /GS /Gy /fp:precise /Zc:wchar_t /Zc:forScope /Zc:inline /Fo"RELEASE\\" /Fd"RELEASE\VC141.PDB" /Gd /TP /analyze- G:\PROJECTS\SCHOOL\EGP-410-ARTIFICIAL-INTELLIGENCE\PLAYGROUND\BARRETT_STRADER\FINAL\PATHFINDING\COMMON\POWERPELLET.CPP
^G:\PROJECTS\SCHOOL\EGP-410-ARTIFICIAL-INTELLIGENCE\PLAYGROUND\BARRETT_STRADER\FINAL\PATHFINDING\COMMON\SENDKEYACTIONMESSAGE.CPP
/c /Zi /nologo /W3 /WX- /diagnostics:classic /O2 /Oi /Oy- /GL /D _CRT_SECURE_NO_WARNINGS /D _MBCS /Gm- /EHsc /MD /GS /Gy /fp:precise /Zc:wchar_t /Zc:forScope /Zc:inline /Fo"RELEASE\\" /Fd"RELEASE\VC141.PDB" /Gd /TP /analyze- G:\PROJECTS\SCHOOL\EGP-410-ARTIFICIAL-INTELLIGENCE\PLAYGROUND\BARRETT_STRADER\FINAL\PATHFINDING\COMMON\SENDKEYACTIONMESSAGE.CPP
^G:\PROJECTS\SCHOOL\EGP-410-ARTIFICIAL-INTELLIGENCE\PLAYGROUND\BARRETT_STRADER\FINAL\PATHFINDING\COMMON\SENDMOUSEACTIONMESSAGE.CPP
/c /Zi /nologo /W3 /WX- /diagnostics:classic /O2 /Oi /Oy- /GL /D _CRT_SECURE_NO_WARNINGS /D _MBCS /Gm- /EHsc /MD /GS /Gy /fp:precise /Zc:wchar_t /Zc:forScope /Zc:inline /Fo"RELEASE\\" /Fd"RELEASE\VC141.PDB" /Gd /TP /analyze- G:\PROJECTS\SCHOOL\EGP-410-ARTIFICIAL-INTELLIGENCE\PLAYGROUND\BARRETT_STRADER\FINAL\PATHFINDING\COMMON\SENDMOUSEACTIONMESSAGE.CPP
^G:\PROJECTS\SCHOOL\EGP-410-ARTIFICIAL-INTELLIGENCE\PLAYGROUND\BARRETT_STRADER\FINAL\PATHFINDING\COMMON\WALL.CPP
/c /Zi /nologo /W3 /WX- /diagnostics:classic /O2 /Oi /Oy- /GL /D _CRT_SECURE_NO_WARNINGS /D _MBCS /Gm- /EHsc /MD /GS /Gy /fp:precise /Zc:wchar_t /Zc:forScope /Zc:inline /Fo"RELEASE\\" /Fd"RELEASE\VC141.PDB" /Gd /TP /analyze- G:\PROJECTS\SCHOOL\EGP-410-ARTIFICIAL-INTELLIGENCE\PLAYGROUND\BARRETT_STRADER\FINAL\PATHFINDING\COMMON\WALL.CPP
^G:\PROJECTS\SCHOOL\EGP-410-ARTIFICIAL-INTELLIGENCE\PLAYGROUND\BARRETT_STRADER\FINAL\PATHFINDING\GAME\A_STARPATHFINDER.CPP
/c /Zi /nologo /W3 /WX- /diagnostics:classic /O2 /Oi /Oy- /GL /D _CRT_SECURE_NO_WARNINGS /D _MBCS /Gm- /EHsc /MD /GS /Gy /fp:precise /Zc:wchar_t /Zc:forScope /Zc:inline /Fo"RELEASE\\" /Fd"RELEASE\VC141.PDB" /Gd /TP /analyze- G:\PROJECTS\SCHOOL\EGP-410-ARTIFICIAL-INTELLIGENCE\PLAYGROUND\BARRETT_STRADER\FINAL\PATHFINDING\GAME\A_STARPATHFINDER.CPP
^G:\PROJECTS\SCHOOL\EGP-410-ARTIFICIAL-INTELLIGENCE\PLAYGROUND\BARRETT_STRADER\FINAL\PATHFINDING\GAME\ADDDYNAMICSEEKAIMESSAGE.CPP
/c /Zi /nologo /W3 /WX- /diagnostics:classic /O2 /Oi /Oy- /GL /D _CRT_SECURE_NO_WARNINGS /D _MBCS /Gm- /EHsc /MD /GS /Gy /fp:precise /Zc:wchar_t /Zc:forScope /Zc:inline /Fo"RELEASE\\" /Fd"RELEASE\VC141.PDB" /Gd /TP /analyze- G:\PROJECTS\SCHOOL\EGP-410-ARTIFICIAL-INTELLIGENCE\PLAYGROUND\BARRETT_STRADER\FINAL\PATHFINDING\GAME\ADDDYNAMICSEEKAIMESSAGE.CPP
^G:\PROJECTS\SCHOOL\EGP-410-ARTIFICIAL-INTELLIGENCE\PLAYGROUND\BARRETT_STRADER\FINAL\PATHFINDING\GAME\CHANGEPLAYERDIRECTIONMESSAGE.CPP
/c /Zi /nologo /W3 /WX- /diagnostics:classic /O2 /Oi /Oy- /GL /D _CRT_SECURE_NO_WARNINGS /D _MBCS /Gm- /EHsc /MD /GS /Gy /fp:precise /Zc:wchar_t /Zc:forScope /Zc:inline /Fo"RELEASE\\" /Fd"RELEASE\VC141.PDB" /Gd /TP /analyze- G:\PROJECTS\SCHOOL\EGP-410-ARTIFICIAL-INTELLIGENCE\PLAYGROUND\BARRETT_STRADER\FINAL\PATHFINDING\GAME\CHANGEPLAYERDIRECTIONMESSAGE.CPP
^G:\PROJECTS\SCHOOL\EGP-410-ARTIFICIAL-INTELLIGENCE\PLAYGROUND\BARRETT_STRADER\FINAL\PATHFINDING\GAME\DEBUGDISPLAY.CPP
/c /Zi /nologo /W3 /WX- /diagnostics:classic /O2 /Oi /Oy- /GL /D _CRT_SECURE_NO_WARNINGS /D _MBCS /Gm- /EHsc /MD /GS /Gy /fp:precise /Zc:wchar_t /Zc:forScope /Zc:inline /Fo"RELEASE\\" /Fd"RELEASE\VC141.PDB" /Gd /TP /analyze- G:\PROJECTS\SCHOOL\EGP-410-ARTIFICIAL-INTELLIGENCE\PLAYGROUND\BARRETT_STRADER\FINAL\PATHFINDING\GAME\DEBUGDISPLAY.CPP
^G:\PROJECTS\SCHOOL\EGP-410-ARTIFICIAL-INTELLIGENCE\PLAYGROUND\BARRETT_STRADER\FINAL\PATHFINDING\GAME\GAMEAPP.CPP
/c /Zi /nologo /W3 /WX- /diagnostics:classic /O2 /Oi /Oy- /GL /D _CRT_SECURE_NO_WARNINGS /D _MBCS /Gm- /EHsc /MD /GS /Gy /fp:precise /Zc:wchar_t /Zc:forScope /Zc:inline /Fo"RELEASE\\" /Fd"RELEASE\VC141.PDB" /Gd /TP /analyze- G:\PROJECTS\SCHOOL\EGP-410-ARTIFICIAL-INTELLIGENCE\PLAYGROUND\BARRETT_STRADER\FINAL\PATHFINDING\GAME\GAMEAPP.CPP
^G:\PROJECTS\SCHOOL\EGP-410-ARTIFICIAL-INTELLIGENCE\PLAYGROUND\BARRETT_STRADER\FINAL\PATHFINDING\GAME\GAMEAPPINPUTINTERPRETOR.CPP
/c /Zi /nologo /W3 /WX- /diagnostics:classic /O2 /Oi /Oy- /GL /D _CRT_SECURE_NO_WARNINGS /D _MBCS /Gm- /EHsc /MD /GS /Gy /fp:precise /Zc:wchar_t /Zc:forScope /Zc:inline /Fo"RELEASE\\" /Fd"RELEASE\VC141.PDB" /Gd /TP /analyze- G:\PROJECTS\SCHOOL\EGP-410-ARTIFICIAL-INTELLIGENCE\PLAYGROUND\BARRETT_STRADER\FINAL\PATHFINDING\GAME\GAMEAPPINPUTINTERPRETOR.CPP
^G:\PROJECTS\SCHOOL\EGP-410-ARTIFICIAL-INTELLIGENCE\PLAYGROUND\BARRETT_STRADER\FINAL\PATHFINDING\GAME\GAMEHUD.CPP
/c /Zi /nologo /W3 /WX- /diagnostics:classic /O2 /Oi /Oy- /GL /D _CRT_SECURE_NO_WARNINGS /D _MBCS /Gm- /EHsc /MD /GS /Gy /fp:precise /Zc:wchar_t /Zc:forScope /Zc:inline /Fo"RELEASE\\" /Fd"RELEASE\VC141.PDB" /Gd /TP /analyze- G:\PROJECTS\SCHOOL\EGP-410-ARTIFICIAL-INTELLIGENCE\PLAYGROUND\BARRETT_STRADER\FINAL\PATHFINDING\GAME\GAMEHUD.CPP
^G:\PROJECTS\SCHOOL\EGP-410-ARTIFICIAL-INTELLIGENCE\PLAYGROUND\BARRETT_STRADER\FINAL\PATHFINDING\GAME\GAMEUNIT.CPP
/c /Zi /nologo /W3 /WX- /diagnostics:classic /O2 /Oi /Oy- /GL /D _CRT_SECURE_NO_WARNINGS /D _MBCS /Gm- /EHsc /MD /GS /Gy /fp:precise /Zc:wchar_t /Zc:forScope /Zc:inline /Fo"RELEASE\\" /Fd"RELEASE\VC141.PDB" /Gd /TP /analyze- G:\PROJECTS\SCHOOL\EGP-410-ARTIFICIAL-INTELLIGENCE\PLAYGROUND\BARRETT_STRADER\FINAL\PATHFINDING\GAME\GAMEUNIT.CPP
^G:\PROJECTS\SCHOOL\EGP-410-ARTIFICIAL-INTELLIGENCE\PLAYGROUND\BARRETT_STRADER\FINAL\PATHFINDING\GAME\GRIDGRAPH.CPP
/c /Zi /nologo /W3 /WX- /diagnostics:classic /O2 /Oi /Oy- /GL /D _CRT_SECURE_NO_WARNINGS /D _MBCS /Gm- /EHsc /MD /GS /Gy /fp:precise /Zc:wchar_t /Zc:forScope /Zc:inline /Fo"RELEASE\\" /Fd"RELEASE\VC141.PDB" /Gd /TP /analyze- G:\PROJECTS\SCHOOL\EGP-410-ARTIFICIAL-INTELLIGENCE\PLAYGROUND\BARRETT_STRADER\FINAL\PATHFINDING\GAME\GRIDGRAPH.CPP
^G:\PROJECTS\SCHOOL\EGP-410-ARTIFICIAL-INTELLIGENCE\PLAYGROUND\BARRETT_STRADER\FINAL\PATHFINDING\GAME\GRIDPATHFINDER.CPP
/c /Zi /nologo /W3 /WX- /diagnostics:classic /O2 /Oi /Oy- /GL /D _CRT_SECURE_NO_WARNINGS /D _MBCS /Gm- /EHsc /MD /GS /Gy /fp:precise /Zc:wchar_t /Zc:forScope /Zc:inline /Fo"RELEASE\\" /Fd"RELEASE\VC141.PDB" /Gd /TP /analyze- G:\PROJECTS\SCHOOL\EGP-410-ARTIFICIAL-INTELLIGENCE\PLAYGROUND\BARRETT_STRADER\FINAL\PATHFINDING\GAME\GRIDPATHFINDER.CPP
^G:\PROJECTS\SCHOOL\EGP-410-ARTIFICIAL-INTELLIGENCE\PLAYGROUND\BARRETT_STRADER\FINAL\PATHFINDING\GAME\GRUE.CPP
/c /Zi /nologo /W3 /WX- /diagnostics:classic /O2 /Oi /Oy- /GL /D _CRT_SECURE_NO_WARNINGS /D _MBCS /Gm- /EHsc /MD /GS /Gy /fp:precise /Zc:wchar_t /Zc:forScope /Zc:inline /Fo"RELEASE\\" /Fd"RELEASE\VC141.PDB" /Gd /TP /analyze- G:\PROJECTS\SCHOOL\EGP-410-ARTIFICIAL-INTELLIGENCE\PLAYGROUND\BARRETT_STRADER\FINAL\PATHFINDING\GAME\GRUE.CPP
^G:\PROJECTS\SCHOOL\EGP-410-ARTIFICIAL-INTELLIGENCE\PLAYGROUND\BARRETT_STRADER\FINAL\PATHFINDING\GAME\GRUEMANAGER.CPP
/c /Zi /nologo /W3 /WX- /diagnostics:classic /O2 /Oi /Oy- /GL /D _CRT_SECURE_NO_WARNINGS /D _MBCS /Gm- /EHsc /MD /GS /Gy /fp:precise /Zc:wchar_t /Zc:forScope /Zc:inline /Fo"RELEASE\\" /Fd"RELEASE\VC141.PDB" /Gd /TP /analyze- G:\PROJECTS\SCHOOL\EGP-410-ARTIFICIAL-INTELLIGENCE\PLAYGROUND\BARRETT_STRADER\FINAL\PATHFINDING\GAME\GRUEMANAGER.CPP
^G:\PROJECTS\SCHOOL\EGP-410-ARTIFICIAL-INTELLIGENCE\PLAYGROUND\BARRETT_STRADER\FINAL\PATHFINDING\GAME\KINEMATIC.CPP
/c /Zi /nologo /W3 /WX- /diagnostics:classic /O2 /Oi /Oy- /GL /D _CRT_SECURE_NO_WARNINGS /D _MBCS /Gm- /EHsc /MD /GS /Gy /fp:precise /Zc:wchar_t /Zc:forScope /Zc:inline /Fo"RELEASE\\" /Fd"RELEASE\VC141.PDB" /Gd /TP /analyze- G:\PROJECTS\SCHOOL\EGP-410-ARTIFICIAL-INTELLIGENCE\PLAYGROUND\BARRETT_STRADER\FINAL\PATHFINDING\GAME\KINEMATIC.CPP
^G:\PROJECTS\SCHOOL\EGP-410-ARTIFICIAL-INTELLIGENCE\PLAYGROUND\BARRETT_STRADER\FINAL\PATHFINDING\GAME\KINEMATICUNIT.CPP
/c /Zi /nologo /W3 /WX- /diagnostics:classic /O2 /Oi /Oy- /GL /D _CRT_SECURE_NO_WARNINGS /D _MBCS /Gm- /EHsc /MD /GS /Gy /fp:precise /Zc:wchar_t /Zc:forScope /Zc:inline /Fo"RELEASE\\" /Fd"RELEASE\VC141.PDB" /Gd /TP /analyze- G:\PROJECTS\SCHOOL\EGP-410-ARTIFICIAL-INTELLIGENCE\PLAYGROUND\BARRETT_STRADER\FINAL\PATHFINDING\GAME\KINEMATICUNIT.CPP
^G:\PROJECTS\SCHOOL\EGP-410-ARTIFICIAL-INTELLIGENCE\PLAYGROUND\BARRETT_STRADER\FINAL\PATHFINDING\GAME\PATHTOMESSAGE.CPP
/c /Zi /nologo /W3 /WX- /diagnostics:classic /O2 /Oi /Oy- /GL /D _CRT_SECURE_NO_WARNINGS /D _MBCS /Gm- /EHsc /MD /GS /Gy /fp:precise /Zc:wchar_t /Zc:forScope /Zc:inline /Fo"RELEASE\\" /Fd"RELEASE\VC141.PDB" /Gd /TP /analyze- G:\PROJECTS\SCHOOL\EGP-410-ARTIFICIAL-INTELLIGENCE\PLAYGROUND\BARRETT_STRADER\FINAL\PATHFINDING\GAME\PATHTOMESSAGE.CPP
^G:\PROJECTS\SCHOOL\EGP-410-ARTIFICIAL-INTELLIGENCE\PLAYGROUND\BARRETT_STRADER\FINAL\PATHFINDING\GAME\PLAYER.CPP
/c /Zi /nologo /W3 /WX- /diagnostics:classic /O2 /Oi /Oy- /GL /D _CRT_SECURE_NO_WARNINGS /D _MBCS /Gm- /EHsc /MD /GS /Gy /fp:precise /Zc:wchar_t /Zc:forScope /Zc:inline /Fo"RELEASE\\" /Fd"RELEASE\VC141.PDB" /Gd /TP /analyze- G:\PROJECTS\SCHOOL\EGP-410-ARTIFICIAL-INTELLIGENCE\PLAYGROUND\BARRETT_STRADER\FINAL\PATHFINDING\GAME\PLAYER.CPP
^G:\PROJECTS\SCHOOL\EGP-410-ARTIFICIAL-INTELLIGENCE\PLAYGROUND\BARRETT_STRADER\FINAL\PATHFINDING\GAME\SWITCHDIRECTIONCOLORMESSAGE.CPP
/c /Zi /nologo /W3 /WX- /diagnostics:classic /O2 /Oi /Oy- /GL /D _CRT_SECURE_NO_WARNINGS /D _MBCS /Gm- /EHsc /MD /GS /Gy /fp:precise /Zc:wchar_t /Zc:forScope /Zc:inline /Fo"RELEASE\\" /Fd"RELEASE\VC141.PDB" /Gd /TP /analyze- G:\PROJECTS\SCHOOL\EGP-410-ARTIFICIAL-INTELLIGENCE\PLAYGROUND\BARRETT_STRADER\FINAL\PATHFINDING\GAME\SWITCHDIRECTIONCOLORMESSAGE.CPP
^G:\PROJECTS\SCHOOL\EGP-410-ARTIFICIAL-INTELLIGENCE\PLAYGROUND\BARRETT_STRADER\FINAL\PATHFINDING\GAME\SWITCHMAPMESSAGE.CPP
/c /Zi /nologo /W3 /WX- /diagnostics:classic /O2 /Oi /Oy- /GL /D _CRT_SECURE_NO_WARNINGS /D _MBCS /Gm- /EHsc /MD /GS /Gy /fp:precise /Zc:wchar_t /Zc:forScope /Zc:inline /Fo"RELEASE\\" /Fd"RELEASE\VC141.PDB" /Gd /TP /analyze- G:\PROJECTS\SCHOOL\EGP-410-ARTIFICIAL-INTELLIGENCE\PLAYGROUND\BARRETT_STRADER\FINAL\PATHFINDING\GAME\SWITCHMAPMESSAGE.CPP
^G:\PROJECTS\SCHOOL\EGP-410-ARTIFICIAL-INTELLIGENCE\PLAYGROUND\BARRETT_STRADER\FINAL\PATHFINDING\GAME\TOGGLEDRAWVISITEDMESSAGE.CPP
/c /Zi /nologo /W3 /WX- /diagnostics:classic /O2 /Oi /Oy- /GL /D _CRT_SECURE_NO_WARNINGS /D _MBCS /Gm- /EHsc /MD /GS /Gy /fp:precise /Zc:wchar_t /Zc:forScope /Zc:inline /Fo"RELEASE\\" /Fd"RELEASE\VC141.PDB" /Gd /TP /analyze- G:\PROJECTS\SCHOOL\EGP-410-ARTIFICIAL-INTELLIGENCE\PLAYGROUND\BARRETT_STRADER\FINAL\PATHFINDING\GAME\TOGGLEDRAWVISITEDMESSAGE.CPP
^G:\PROJECTS\SCHOOL\EGP-410-ARTIFICIAL-INTELLIGENCE\PLAYGROUND\BARRETT_STRADER\FINAL\PATHFINDING\GAME\TOGGLEHELPMESSAGE.CPP
/c /Zi /nologo /W3 /WX- /diagnostics:classic /O2 /Oi /Oy- /GL /D _CRT_SECURE_NO_WARNINGS /D _MBCS /Gm- /EHsc /MD /GS /Gy /fp:precise /Zc:wchar_t /Zc:forScope /Zc:inline /Fo"RELEASE\\" /Fd"RELEASE\VC141.PDB" /Gd /TP /analyze- G:\PROJECTS\SCHOOL\EGP-410-ARTIFICIAL-INTELLIGENCE\PLAYGROUND\BARRETT_STRADER\FINAL\PATHFINDING\GAME\TOGGLEHELPMESSAGE.CPP
^G:\PROJECTS\SCHOOL\EGP-410-ARTIFICIAL-INTELLIGENCE\PLAYGROUND\BARRETT_STRADER\FINAL\PATHFINDING\GAME\MAIN.CPP
/c /Zi /nologo /W3 /WX- /diagnostics:classic /O2 /Oi /Oy- /GL /D _CRT_SECURE_NO_WARNINGS /D _MBCS /Gm- /EHsc /MD /GS /Gy /fp:precise /Zc:wchar_t /Zc:forScope /Zc:inline /Fo"RELEASE\\" /Fd"RELEASE\VC141.PDB" /Gd /TP /analyze- G:\PROJECTS\SCHOOL\EGP-410-ARTIFICIAL-INTELLIGENCE\PLAYGROUND\BARRETT_STRADER\FINAL\PATHFINDING\GAME\MAIN.CPP
