^G:\Projects\School\EGP-410-Artificial-Intelligence\Playground\Barrett_Strader\Final\pathfinding\game\pathfinding.vcxproj
G:\Projects\School\EGP-410-Artificial-Intelligence\Playground\Barrett_Strader\Final\pathfinding\game\Release\pathfinding.ipdb
G:\Projects\School\EGP-410-Artificial-Intelligence\Playground\Barrett_Strader\Final\pathfinding\game\Release\pathfinding.iobj
^G:\Projects\School\EGP-410-Artificial-Intelligence\Playground\Barrett_Strader\Final\pathfinding\game\pathfinding.vcxproj
G:\Projects\School\EGP-410-Artificial-Intelligence\Playground\Barrett_Strader\Final\pathfinding\game\Release\pathfinding.ipdb
G:\Projects\School\EGP-410-Artificial-Intelligence\Playground\Barrett_Strader\Final\pathfinding\game\Release\pathfinding.iobj
^G:\Projects\School\EGP-410-Artificial-Intelligence\Playground\Barrett_Strader\Final\pathfinding\game\pathfinding.vcxproj
G:\Projects\School\EGP-410-Artificial-Intelligence\Playground\Barrett_Strader\Final\pathfinding\game\Release\pathfinding.ipdb
G:\Projects\School\EGP-410-Artificial-Intelligence\Playground\Barrett_Strader\Final\pathfinding\game\Release\pathfinding.iobj
^G:\Projects\School\EGP-410-Artificial-Intelligence\Playground\Barrett_Strader\Final\pathfinding\game\pathfinding.vcxproj
G:\Projects\School\EGP-410-Artificial-Intelligence\Playground\Barrett_Strader\Final\pathfinding\game\Release\pathfinding.ipdb
G:\Projects\School\EGP-410-Artificial-Intelligence\Playground\Barrett_Strader\Final\pathfinding\game\Release\pathfinding.iobj
